{
    "networks": [
	// Connect with dhcp
	{
	    "ssid": "<network ssid>",
	    "pwd": "<network password>",
	},
	// Connect with static ip
	{
	    "ssid": "<network ssid>",
	    "pwd": "<network password>",
	    "static-ip": "<static ip>"
	},
	// Connect with custom wlan settings
	{
	    "ssid": "<network ssid>",
	    "pwd": "<network password>",
	    "wlan_config": [
		"<static ip for this device>",
  		"<subnet mask>",
  		"<gateway>",
  		"<dns server>"
	    ]
	}
    ],
    "servers": [
	{
	    "addr": "<the ip or domain for the server>",
	    "port": "<port number>",
	    "cert": "<optional path to ssl certificate>"
	}
    ],
    "id": "<unique identifier>",
    "pins": {
	"credits": {
	    "<number of credits triggered by pin>": [
		// Required
		"<pin name, like P20>",
		// The rest is optional
		"<mode: IN | OUT | DRAIN. Default IN>",
		"<high value. 1 if logic high, 0 otherwise. Default 1>",
		"<pull up/down: UP | DOWN | NONE. Default corresponds to mode and high value>"
	    ]
	},
	// Optional
	"inhibit": [
	    // Required
	    "<pin name, like P20>",
	    // The rest is optional
	    "<mode: IN | OUT | DRAIN. Default IN>",
	    "<high value. 1 if logic high, 0 otherwise. Default 1>",
	    "<pull up/down: UP | DOWN | NONE. Default corresponds to mode and high value>"
	]
    }
}
